{
	"Array": {
        "prefix": "barr",
        "body": [
            "\\begin{array}{$1}",
            "  $0",
            "\\end{array}",
        ]
    },
    "Equal": {
        "prefix": "barrEq",
        "body": [
            "\\left\\{",
            "\\begin{array}{l}",
            "  $0",
            "\\end{array}",
            "\\right."
        ]
    },
    "Matrix": {
        "prefix": "mtx",
        "body": [
            "\\left(",
            "\\begin{array}{$1}",
            "  $0",
            "\\end{array}",
            "\\right)"
        ]
    },
    "Define": {
        "prefix": "bde",
        "body": [
            "\\begin{define}$1",
            "  $0",
            "\\end{define}"
        ]
    },
    "Title": {
        "prefix": "bti",
        "body": [
            "\\begin{title}[${1:\\Large}]",
            "  $0",
            "\\end{title}"
        ]
    },
    "Block": {
        "prefix": "bbl",
        "body": [
            "\\begin{block}[$1]",
            "  $0",
            "\\end{block}"
        ]
    },
    "Theorem": {
        "prefix": "bth",
        "body": [
            "\\begin{theorem}$1",
            "  $0",
            "\\end{theorem}"
        ]
    },
    "Proof": {
        "prefix": "bpr",
        "body": [
            "\\begin{proof}$1",
            "  $0",
            "\\end{proof}"
        ]
    },
}